{
  "translation-author": "§c§lTranslator: §b§lGhost_chu",
  "translation-contributors": "§c§lContributors: §b§lTimtower, Netherfoam, KaiNoMood and Mgazul",
  "translation-version": "§c§lSupport Version: §b§lReremake",
  "translation-country": "§c§lLanguage Zone: §b§lEnglish (en_US)",
  "language-version": 29,
  "not-looking-at-shop": "§cNenalezen žádný QuickShop. Musíš na něj koukat",
  "no-anythings-in-your-hand": "§cNemáš nic v ruce.",
  "no-permission": "§cNa toto nemáš povolení.",
  "no-creative-break": "&cYou cannot break other players shops in creative mode.  Use survival instead or use SuperTool ({0}).",
  "no-double-chests": "§cNemůžeš níčit hráčům Shop. Použij Survival nebo Supertool ({0}).",
  "shop-already-owned": "§cToto je již shop.",
  "chest-was-removed": "§cChesta odstraněna.",
  "price-too-cheap": "§cCena musí být vyšší jak §e$0.01",
  "no-price-change": "§cTo by nezměnilo cenu!",
  "you-cant-afford-a-new-shop": "§cVytvoření shopu stojí {0} to create a new shop.",
  "player-bought-from-your-store-tax": "§c{0} zakoupil {1} {2} z tvého obchodu a ty jsi zaplatil {3} na daních.",
  "you-cant-afford-to-change-price": "§cStojí to {0} to change the price in your shop.",
  "success-created-shop": "§aShop vytvořen.",
  "success-removed-shop": "§aShop odstraněn.",
  "shops-arent-locked": "§cNezapomeň, obchody nejsou chráněny! Pokud chceš zamezit krádeži, použij Residenci nebo LWC!",
  "shop-creation-cancelled": "§cZrušeno tvoření shopu.",
  "shop-purchase-cancelled": "§cZrušeno zakoupení.",
  "shop-stock-too-low": "§cTento shop má pouze {0} {1}",
  "you-cant-afford-to-buy": "§cToto stojí {0}, ale ty máš pouze {1}",
  "negative-amount": "§cDerp, can't trade negative amounts",
  "not-a-number": "&cThere can only be number, but you input {0}",
  "not-a-integer": "&cThere can only be integer, but you input {0}",
  "player-bought-from-your-store": "§a{0} zakoupil §b{1} {2} §az tvého obchodu.",
  "shop-out-of-stock": "§cTvůj shop na {0}, {1}, {2}, již nemá dostatek {3}",
  "shop-has-no-space": "§cTento shop má již místo pouze na {0} {1}.",
  "you-dont-have-that-many-items": "§cMáš pouze {0} {1}.",
  "the-owner-cant-afford-to-buy-from-you": "§cTo stojí {0}, ale vlastník má pouze {1}",
  "player-sold-to-your-store": "§a{0} prodal {1} {2} do tvého obchodu.",
  "shop-out-of-space": "§cTvůj shop na {0}, {1}, {2}, je plný.",
  "fee-charged-for-price-change": "§aZaplatíš §c{0}§a pro změnu ceny.",
  "price-is-now": "§aNová cena shopu je §e{0}",
  "thats-not-a-number": "§cInvalid number",
  "no-price-given": "§cPlease give a valid price.",
  "average-price-nearby": "§aAverage Price Nearby: §e{0}",
  "shop-has-changed": "§cThe shop you tried to use has changed since you clicked it!",
  "shop-not-exist": "&cThere had no shop.",
  "nearby-shop-this-way": "§aShop is {0} blocks away from you.",
  "no-nearby-shop": "§cNo shops matching {0} nearby.",
  "buying-more-than-selling": "§cWARNING: You are buying items for more than you are selling them!",
  "not-enough-space": "§cYou only have room for {0} more of that!",
  "refill-success": "§aRefill success",
  "empty-success": "§aEmpty success",
  "admin-shop": "AdminShop",
  "unknown-owner": "Unknown",
  "owner-bypass-check": "§eBypass all check,Trade successful! (You are shop owner)",
  "reached-maximum-can-create": "§cYou have already created a maximum of {0}/{1} shops!",
  "restricted-prices": "§cRestricted prices for {0}: min {1} , max {2}",
  "no-enough-money-to-keep-shops": "§cYou had no money to keep your shops! All shops removed...",
  "nothing-to-flush": "&aYou had no new shop message.",
  "break-shop-use-supertool": "&eYou can break the shop by using the SuperTool.",
  "failed-to-put-sign": "&cNot enough space around the shop to place the information sign.",
  "failed-to-paste": "&cFailed upload data to Pastebin, Check the internet and try again. (See console for details)",
  "warn-to-paste": "&eCollecting data and upload to Pastebin, this may need a while. &c&lWarning&c, The data is keep public one week, it may leak your server configuration, make sure you only send it to your &ltrusted staff/developer.",
  "price-too-high": "&c The shop price too high! You can't create one that is priced higher than {0}.",
  "you-cant-create-shop-in-there": "§cYou don't have permission to create a shop at this location.",
  "unknown-player": "&cTarget player doesn't exist, please check the username you typed.",
  "shop-staff-cleared": "&aSuccessfully removed all staff for your shop.",
  "shop-staff-added": "&aSuccessfully added {0} to your shop staffs.",
  "shop-staff-deleted": "&aSuccessfully removed {0} from your shop staffs.",
  "no-permission-build": "&cYou can't build a shop here.",
  "success-change-owner-to-server": "&aSuccessfully set the shop owner to Server.",
  "flush-finished": "&aSuccessfully flushed the messages.",
  "purchase-failed": "&cPurchase failed: Internal Error, please contact the server administrator.",
  "no-pending-action": "&cYou do not have any pending action",
  "permission-denied-3rd-party": "&cPermission denied: 3rd party plugin [{0}].",
  "menu": {
    "successful-purchase": "§aÚspěšně zakoupeno:",
    "successfully-sold": "§aÚspěšně prodáno:",
    "item-name-and-price": "§e{0} {1} §aza §e{2}",
    "sell-tax": "§aZaplatil jsi §e{0} §ajako daň.",
    "sell-tax-self": "§aNevlastníš tento shop, takže neplatíš daň.",
    "enchants": "§bEnchanty",
    "stored-enchants": "§bUschované enchanty",
    "shop-information": "§bInformace o shopu:",
    "owner": "§bVlastník: §3{0}",
    "item": "§bItem: §3{0}",
    "preview": "§b[Zobrazit item]",
    "space": "§bMísto: §3{0}",
    "stock": "§bShop obsahuje: §3{0}x Item",
    "price-per": "§bCena za §3{0} §b- §3{1}",
    "total-value-of-chest": "§bCelková cena truhly: §3{0}",
    "damage-percent-remaining": "§bZbývá §3{0}%§b.",
    "this-shop-is-buying": "§aTento shop §bVYKUPUJE§a itemy.",
    "this-shop-is-selling": "§aTento shop §bPRODÁVÁ§a itemy.",
    "effects": "§bEfekty: §3{0}",
    "commands": {
      "preview": "/qs silentpreview {0} {1} {2} {3}"
    }
  },
  "bypassing-lock": "§cBypassing a QuickShop lock!",
  "that-is-locked": "§cTento shop je zamknut.",
  "how-many-buy": "&aEnter how many you wish to &bBUY&a in chat. You can buy &e{0}&a. Enter &ball&a to buy them all.",
  "how-many-sell": "&aEnter how many you wish to &dSELL&a in chat. You have &e{0}&a available. Enter &ball&a to sell them all.",
  "not-allowed-to-create": "§cZde nemůžeš vytvořit shop.",
  "blacklisted-item": "§cThat item is blacklisted. You may not sell it",
  "how-much-to-trade-for": "§aZadej, kolik bude stát jeden §e{0}§a do chatu.",
  "command": {
    "toggle-unlimited": {
      "unlimited": "&aShop is now unlimited",
      "limited": "&aShop is now limited"
    },
    "no-owner-given": "§cNo owner given. Use §a/qs setowner <player>§c",
    "new-owner": "§aNew owner: §e{0}",
    "now-buying": "§aNow §dBUYING§a §e{0}",
    "now-selling": "§aNow §bSELLING §e{0}",
    "cleaning": "§aCleaning up shops with 0 stock...",
    "reloading": "§aReloading...",
    "cleaned": "§aCleaned §e{0}§a shops",
    "no-type-given": "§cUsage: /qs find <item>",
    "no-amount-given": "cNo amount given. Use §a/qs refill <amount>§c",
    "now-debuging": "&aSuccessfully switched to developer mode, Reloading QuickShop...",
    "now-nolonger-debuging": "&aSuccessfully switched to production mode, Reloading QuickShop...",
    "description": {
      "title": "§aQuickShop Help",
      "unlimited": "§eMakes a shop unlimited",
      "setowner": "§eChanges who owns a shop",
      "buy": "§eChanges a shop to §dBUY§e mode",
      "sell": "§eChanges a shop to §bSELL§e mode",
      "clean": "§eRemoves all (loaded) shops with 0 stock",
      "price": "§eChanges the buy/selling price of one of your shops",
      "find": "§eLocates the nearest shop of a specific type.",
      "reload": "§eReloads QuickShop from config.yml",
      "refill": "§eAdds a given number of items to a shop",
      "empty": "§eRemoves all stock from a shop",
      "create": "§eCreates a new shop at the target chest",
      "debug": "&eSwitch to developer mode",
      "fetchmessage": "&eFetch unread shop message",
      "info": "&eShow QuickShop Statistics",
      "paste": "&eAuto upload server data to Pastebin",
      "staff": "&eManage your shop staffs",
      "owner": "&eChanges who owns a shop",
      "remove": "&eRemove your looking the shop",
      "amount": "&eExecute for your actions with amount(For chat plugin issue)",
      "about": "&eShow QuickShop abouts",
      "help": "&eShow QuickShop helps",
      "supercreate": "&eCreate a shop bypass all protection checks"
    },
    "wrong-args": "&cParameters don't match, use /qs help to check help",
    "no-target-given": "&cUsage: /qs export mysql|sqlite"
  },
  "signs": {
    "header": "§b{0}",
    "selling": "Prodává {0}",
    "buying": "Kupuje {0}",
    "item": "{0}",
    "price": "{0} každý",
    "unlimited": "Unlimited"
  },
  "controlpanel": {
    "infomation": "&aShop Control Panel:",
    "setowner": "&aOwner: &b{0} &e[&d&lChange&e]",
    "setowner-hover": "&eClick to switch owner.",
    "unlimited": "&aUnlimited: {0} &e[&d&lSwitch&e]",
    "unlimited-hover": "&eLooking you want changing shop and click to switch enabled or disabled.",
    "mode-selling": "&aShop mode: &bSelling &e[&d&lSwitch&e]",
    "mode-selling-hover": "&eLooking you want changing shop and click to switch enabled or disabled.",
    "mode-buying": "&aShop mode: &bBuying &e[&d&lSwitch&e]",
    "mode-buying-hover": "&eLooking you want changing shop and click to switch enabled or disabled.",
    "price": "&aPrice: &b{0} &e[&d&lSet&e]",
    "price-hover": "&eClick to set a new price for the shop.",
    "refill": "&aRefill: Refill the shop items &e[&d&lOK&e]",
    "refill-hover": "&eClick to refill the shop.",
    "empty": "&aEmpty: Remove shop all items &e[&d&lOK&e]",
    "empty-hover": "&eClick to clear the inventory of the shop.",
    "remove": "&c&l[Remove Shop]",
    "remove-hover": "&eClick to remove this shop.",
    "commands": {
      "setowner": "/qs setowner [Player]",
      "unlimited": "/qs silentunlimited {0} {1} {2} {3}",
      "buy": "/qs silentbuy {0} {1} {2} {3}",
      "sell": "/qs silentsell {0} {1} {2} {3}",
      "price": "/qs price [New Price]",
      "refill": "/qs refill [Amount]",
      "empty": "/qs silentempty {0} {1} {2} {3}",
      "remove": "/qs silentremove {0} {1} {2} {3}"
    }
  },
  "tableformat": {
    "full_line": "+---------------------------------------------------+",
    "left_half_line": "+--------------------",
    "right_half_line": "--------------------+",
    "left_begin": "| "
  },
  "booleanformat": {
    "success": "&a✔",
    "failed": "&c✘"
  },
  "tabcomplete": {
    "price": "[price]",
    "range": "[range]",
    "amount": "[amount]"
  },
  "updatenotify": {
    "buttontitle": "[Update Now]",
    "list": [
      "{0} is released, You are still using {1}!",
      "Boom! New update {0} incoming, Update!",
      "Surprise! {0} came out, you are on {1}",
      "Looks like you need to update, {0} is released!",
      "Ooops! {0} is now released, you are on {1}!",
      "I promise, QS has been updated to {0}, why have you not updated?",
      "Fixing and re... Sorry {0} is released!",
      "Err! Nope, this is not an error, {0} has just been released!",
      "OMG! {0} came out! Why are you still using {1}?",
      "Todays News: QuickShop has been updated to {0}!",
      "Plugin K.I.A, You should update to {0}!",
      "Fuze is fuzeing update {0}, save update!",
      "There is an update commander, {0} has just come out!",
      "Look me style---{0} updated, your still using {1}",
      "Ahhhhhhh! New update {0}! Update!",
      "What U thinking? {0} has been released! Update!"
    ],
    "onekeybuttontitle": "[OneKey Update]",
    "remote-disable-warning": "&cThis version of QuickShop is marked disabled by remote server, that mean this version may have serious problem, get details from our SpigotMC page: {0}. This warning will appear and spam your console until you use other not disabled version to replace this one, doesn't effect your server running.",
    "label": {
      "unstable": "[Unstable]",
      "stable": "[Stable]",
      "lts": "[LTS]",
      "qualityverifyed": "[Quality]",
      "github": "[Github]",
      "spigotmc": "[SpigotMC]",
      "bukkitdev": "[BukkitDev]",
      "master": "[Master]"
    }
  },
  "shop-removed-cause-ongoing-fee": "&cYou shop at {0} was removed cause you had no enough money to keep it!",
  "language-author": "§c§lPřekladatel: §b§lramenhair",
  "language-contributors": "§c§lPřispíval: §b§lWarfareMC.eu",
  "language-country": "§c§lLokalita: §b§lČeština (cz_CZ)",
  "language-name": "en-US",
  "no-permission-remove-shop": "&cYou do not have permission to use that command. Try break the shop instead?",
  "digits-reach-the-limit": "&cYou have reach the limit of the digits after the dot in price.",
  "complete": "&aComplete!",
  "quickshop-gui-preview": "QuickShop GUI Preview Item",
  "shops-recovering": "Recovering shops from backup...",
  "shops-backingup": "Backing up the shops from database...",
  "saved-to-path": "The backup file was saved to {0} .",
  "backup-failed": "Cannot backup the database, check the console for details.",
  "translate-not-completed-yet-click": "The translation of language {0} has completed {1}, Do you want help us to improve the translation? Click Here!",
  "translate-not-completed-yet-url": "The translation of language {0} has completed {1}, Do you want help us to improve the translation? Browse: {2}",
  "language-info-panel": {
    "name": "Language: ",
    "code": "Code: ",
    "progress": "Progress: ",
    "help": "Help Us: ",
    "translate-on-crowdin": "[Translate on Crowdin]"
  },
  "not-managed-shop": "You isn't the owner or moderator of the shop"
}